{
    "month": "Сентябрь",
    "year": "2017",
    "persons": [
    {"FIO":"Алтунин Дмитрий","Days_at_Work":"21","C0":"0","sum_c0":"0","C3":"x","sum_c3":"22750","C2":"x","sum_c2":"7000","C1":"0","sum_c1":"0","sum_drive":"0","drive":"0","bonus":"x","sum_bonus":"3000","vigil_holiday":"2","sum_holiday":"4000","vigil_ev":"5","sum_ev":"3500","free_sum":"0","personal":"x","p_sum":"8000","av_sum":"21000","full_sum":"48000","on_hand":"27000","cmt":"","card_sum":""}, 
{"FIO":"Арсеньтев Владислав","Days_at_Work":"21","C0":"0","sum_c0":"0","C3":"x","sum_c3":"22750","C2":"0","sum_c2":"0","C1":"0","sum_c1":"0","sum_drive":"x","drive":"3000","bonus":"x","sum_bonus":"3000","vigil_holiday":"0","sum_holiday":"0","vigil_ev":"0","sum_ev":"0","free_sum":"0","personal":"0","p_sum":"0","av_sum":"15000","full_sum":"29000","on_hand":"14000","cmt":"","card_sum":""}, 
{"FIO":"Бороздин Максим","Days_at_Work":"21","C0":"0","sum_c0":"0","C3":"x","sum_c3":"22750","C2":"0","sum_c2":"0","C1":"x","sum_c1":"20000","sum_drive":"0","drive":"0","bonus":"0","sum_bonus":"0","vigil_holiday":"0","sum_holiday":"0","vigil_ev":"1","sum_ev":"700","free_sum":"0","personal":"0","p_sum":"0","av_sum":"22500","full_sum":"43504","on_hand":"13500","cmt":"","card_sum":"7504"}, 
{"FIO":"Ложкин Иван","Days_at_Work":"10","C0":"x","sum_c0":"6500","C3":"0","sum_c3":"0","C2":"0","sum_c2":"0","C1":"0","sum_c1":"0","sum_drive":"x","drive":"1428.57142857143","bonus":"0","sum_bonus":"0","vigil_holiday":"0","sum_holiday":"0","vigil_ev":"0","sum_ev":"0","free_sum":"0","personal":"0","p_sum":"0","av_sum":"0","full_sum":"8000","on_hand":"8000","cmt":"","card_sum":""}, 
{"FIO":"Васильев Роман","Days_at_Work":"21","C0":"0","sum_c0":"0","C3":"x","sum_c3":"22750","C2":"0","sum_c2":"0","C1":"0","sum_c1":"0","sum_drive":"0","drive":"0","bonus":"x","sum_bonus":"3000","vigil_holiday":"1","sum_holiday":"2000","vigil_ev":"5","sum_ev":"3500","free_sum":"0","personal":"x","p_sum":"8000","av_sum":"17500","full_sum":"39500","on_hand":"22000","cmt":"","card_sum":""}, 
{"FIO":"Вортен Алена","Days_at_Work":"17","C0":"0","sum_c0":"0","C3":"x","sum_c3":"18416.6666666667","C2":"0","sum_c2":"0","C1":"0","sum_c1":"0","sum_drive":"0","drive":"0","bonus":"x","sum_bonus":"2428.57142857143","vigil_holiday":"0","sum_holiday":"0","vigil_ev":"0","sum_ev":"0","free_sum":"3000","personal":"0","p_sum":"0","av_sum":"16500","full_sum":"24000","on_hand":"7500","cmt":"","card_sum":""}, 
{"FIO":"Улыбин Даниил","Days_at_Work":"21","C0":"0","sum_c0":"0","C3":"x","sum_c3":"22750","C2":"0","sum_c2":"0","C1":"0","sum_c1":"0","sum_drive":"x","drive":"3000","bonus":"x","sum_bonus":"3000","vigil_holiday":"4","sum_holiday":"8000","vigil_ev":"6","sum_ev":"4200","free_sum":"-6000","personal":"0","p_sum":"0","av_sum":"15000","full_sum":"35000","on_hand":"20000","cmt":"ремонт авто","card_sum":""}, 
{"FIO":"Закревский Иван","Days_at_Work":"21","C0":"0","sum_c0":"0","C3":"x","sum_c3":"22750","C2":"0","sum_c2":"0","C1":"0","sum_c1":"0","sum_drive":"0","drive":"0","bonus":"x","sum_bonus":"3000","vigil_holiday":"2","sum_holiday":"4000","vigil_ev":"4","sum_ev":"2800","free_sum":"0","personal":"0","p_sum":"0","av_sum":"13500","full_sum":"32500","on_hand":"19000","cmt":"","card_sum":""}, 
{"FIO":"Журкин Евгений","Days_at_Work":"10","C0":"x","sum_c0":"6500","C3":"0","sum_c3":"0","C2":"0","sum_c2":"0","C1":"0","sum_c1":"0","sum_drive":"x","drive":"1428.57142857143","bonus":"0","sum_bonus":"0","vigil_holiday":"0","sum_holiday":"0","vigil_ev":"0","sum_ev":"0","free_sum":"0","personal":"0","p_sum":"0","av_sum":"0","full_sum":"8000","on_hand":"8000","cmt":"","card_sum":""}
]
}